==== 2012-09-18 13 04 =====================================
--Продвижение--

--Скачивать об-ия--
http://makler.md/chisinau/nedvizhimosti/arenda-nedvizhimosti/nedvizhimosti-sdaju/kvartiry-komnaty

--Сайт конкуренты--

http://www.aparthotel.md/
http://900.md/message.php?mesid=0508
http://4rent.md/ru/
http://999.md/
http://900.md/
http://makler.md/

--Полезные ссылки--

Статистика поиска google - http://www.google.com/insights/search/?hl=ru#q=%D1%81%D0%BD%D0%B8%D0%BC%D1%83%20%D0%BA%D0%B2%D0%B0%D1%80%D1%82%D0%B8%D1%80%D1%83&geo=MD&cmpt=q
http://www.raskruty.ru/keywords.html
http://www.webtoolhub.com/tn561389-web-page-analyzer.aspx - Показывает кол-во тегов на сайте

--Поисковые запросы--

http://wordstat.yandex.ru - подбор ключевых слов в Яндекс.
Не забываем, чтобы правильно определить поисковые запросы Яндекса, нужно, используя операторы, уточнять частотность: брать в кавычки "..." и точное вхождение "!...".

http://adstat.rambler.ru/wrds/ - подбор ключевых слов в Рамблер.

https://adwords.google.ru/select/KeywordToolExternal - подбор ключевых слов в Google.

-----------
Напишите статью (а лучше несколько) и опубликуйте ее в каталогах статей.
Чтобы найти каталоги статей, просто наберите “каталог статей” или “добавить статью” в любом поисковике.
В статье разместите 2-4 ссылки на главную страницу вашего сайта или на внутренние страницы.
Подробнее о продвижении статьями читайте здесь: “Продвижение сайта статьями”.
http://shakin.ru/seo/18-ways-to-speed-up-website-indexing.html

==================================== 2012-00-00 00 00 =====




==== 2012-00-00 00 00 =====================================

================================== 2012-00-00 00 00 ==[]==




==== 2012-00-00 00 00 =====================================
================================== 2012-00-00 00 00 ==[]==




==== 2012-00-00 00 00 =====================================
================================== 2012-00-00 00 00 ==[]==




==== 2012-00-00 00 00 =====================================
================================== 2012-00-00 00 00 ==[]==




==== 2012-00-00 00 00 =====================================
================================== 2012-00-00 00 00 ==[]==




==== 2012-00-00 00 00 =====================================
================================== 2012-00-00 00 00 ==[]==




==== 2012-00-00 00 00 =====================================
================================== 2012-00-00 00 00 ==[]==




==== 2012-00-00 00 00 =====================================
================================== 2012-00-00 00 00 ==[]==




==== 2012-00-00 00 00 =====================================
================================== 2012-00-00 00 00 ==[]==




==== 2012-00-00 00 00 =====================================
================================== 2012-00-00 00 00 ==[]==




==== 2012-00-00 00 00 =====================================
================================== 2012-00-00 00 00 ==[]==




==== 2012-00-00 00 00 =====================================
================================== 2012-00-00 00 00 ==[]==




==== 2012-00-00 00 00 =====================================
================================== 2012-00-00 00 00 ==[]==




==== 2012-00-00 00 00 =====================================
================================== 2012-00-00 00 00 ==[]==




==== 2012-00-00 00 00 =====================================
================================== 2012-00-00 00 00 ==[]==




==== 2012-00-00 00 00 =====================================
================================== 2012-00-00 00 00 ==[]==